3 데이터 요약표 작성의 기초 – R 과 Quarto 를 이용한 데이터 테이블 작성
…
1단계 통계표에서 pivot_longer을 사용해 추가적으로 진행을 해본다.

항목이름과 통계이름으로 구성된 얿은 열을 가진 자료를 다시 긴 행을 가진 자료로 변환

변환시 열이름을 두 열로 나누어 저장(항목이름 item과 통계량 stat)

항목이름 item열을 앞으로 배치

코드

bb <- aa %>% pivot_longer(!c(TEST_SEX, TEST_YEAR), names_to = c("item", "stat"), names_sep="-" , values_to = "value")
bb

# A tibble: 1,008 × 5
# Groups:   TEST_SEX [2]
   TEST_SEX TEST_YEAR item      stat     value
   <chr>        <int> <chr>     <chr>    <dbl>
 1 남성          2017 ITEM_F001 개수       85 
 2 남성          2017 ITEM_F001 결측개수    0 
 3 남성          2017 ITEM_F001 평균      188.
 4 남성          2017 ITEM_F001 표준편차  173.
 5 남성          2017 ITEM_F001 최소값    145.
 6 남성          2017 ITEM_F001 백분위25  165.
 7 남성          2017 ITEM_F001 중앙값    170 
 8 남성          2017 ITEM_F001 백분위75  175.
 9 남성          2017 ITEM_F001 최대값   1761 
10 남성          2017 ITEM_F002 개수       85 
# ℹ 998 more rows

3단계 통계표

2단계 통계표에서 pivot_wider을 진행해 추가적으로 진행을 해본다.

긴 행을 가진 자료를 측정 년도를 열로 바꾸어 긴 열을 가진 자료로 변환

항목이름과 성별순으로 자료를 정렬

코드

cc <- bb %>% dplyr::relocate(item) %>% pivot_wider(names_from = TEST_YEAR, values_from = value)
cc

# A tibble: 144 × 10
# Groups:   TEST_SEX [2]
   item      TEST_SEX stat     `2017` `2018` `2019` `2020` `2021` `2022` `2023`
   <chr>     <chr>    <chr>     <dbl>  <dbl>  <dbl>  <dbl>  <dbl>  <dbl>  <dbl>
 1 ITEM_F001 남성     개수        85  131    140     20     29     66     89   
 2 ITEM_F001 남성     결측개수     0    0      0      0      0      0      0   
 3 ITEM_F001 남성     평균       188. 171.   171.   172.   173.   174.   171.  
 4 ITEM_F001 남성     표준편차   173.   6.38   7.49   5.26   6.61   6.28   7.79
 5 ITEM_F001 남성     최소값     145. 146.   144.   161.   155    159    143.  
 6 ITEM_F001 남성     백분위25   165. 167.   166.   169.   170    171.   166.  
 7 ITEM_F001 남성     중앙값     170  172.   171.   173.   174.   174.   172.  
 8 ITEM_F001 남성     백분위75   175. 175.   176.   174.   177.   177.   176.  
 9 ITEM_F001 남성     최대값    1761  184.   189    183.   185.   189    187.  
10 ITEM_F002 남성     개수        85  131    140     20     29     66     89   
# ℹ 134 more rows
…
